<?xml version="1.0" encoding="UTF-8" standalone="no"?>
<svg
   xmlns:dc="http://purl.org/dc/elements/1.1/"
   xmlns:cc="http://creativecommons.org/ns#"
   xmlns:rdf="http://www.w3.org/1999/02/22-rdf-syntax-ns#"
   xmlns:svg="http://www.w3.org/2000/svg"
   xmlns="http://www.w3.org/2000/svg"
   xmlns:xlink="http://www.w3.org/1999/xlink"
   xmlns:sodipodi="http://sodipodi.sourceforge.net/DTD/sodipodi-0.dtd"
   xmlns:inkscape="http://www.inkscape.org/namespaces/inkscape"
   width="180"
   height="180"
   viewBox="0 0 47.624999 47.625001"
   version="1.1"
   id="svg8"
   inkscape:export-filename="/tmp/wsicon-gl-180.png"
   inkscape:export-xdpi="96"
   inkscape:export-ydpi="96"
   inkscape:version="1.0 (4035a4f, 2020-05-01)"
   sodipodi:docname="repository-logo.svg">
  <defs
     id="defs2" />
  <sodipodi:namedview
     id="base"
     pagecolor="#ffffff"
     bordercolor="#666666"
     borderopacity="1.0"
     inkscape:pageopacity="0.0"
     inkscape:pageshadow="2"
     inkscape:zoom="5.4444444"
     inkscape:cx="88.714286"
     inkscape:cy="89.265306"
     inkscape:document-units="px"
     inkscape:current-layer="layer1"
     inkscape:document-rotation="0"
     showgrid="false"
     units="px"
     inkscape:window-width="1600"
     inkscape:window-height="1209"
     inkscape:window-x="551"
     inkscape:window-y="63"
     inkscape:window-maximized="0" />
  <metadata
     id="metadata5">
    <rdf:RDF>
      <cc:Work
         rdf:about="">
        <dc:format>image/svg+xml</dc:format>
        <dc:type
           rdf:resource="http://purl.org/dc/dcmitype/StillImage" />
        <dc:title />
      </cc:Work>
    </rdf:RDF>
  </metadata>
  <g
     inkscape:label="Layer 1"
     inkscape:groupmode="layer"
     id="layer1">
    <image
       y="0"
       x="0"
       width="47.625"
       height="47.625"
       preserveAspectRatio="none"
       xlink:href="data:image/png;base64,iVBORw0KGgoAAAANSUhEUgAAALQAAAC0CAYAAAA9zQYyAAAABmJLR0QA/wD/AP+gvaeTAAAACXBI WXMAAAsTAAALEwEAmpwYAAAAB3RJTUUH4ggKFSc0KQmcxwAAIABJREFUeNrtvXmcpGdd7v29n6X2 pfdtevY920w2QoAQAhFBNkXwFfW4vq/bi4ocQN9zPCrqxw2PAsdX5bjg8SCooIIoSxIggSyTfZKZ zGT2mZ7p6X2pvZ7tvs8fd1V3dXVVdc8kJJPwXJ9PTXdXd3VPd13PVddvvSFEiBAhQoQIESJEiBAh QoQIESJEiBAhQoQIESJEiBAhQoQIESJEiBAhQoQIESJEiBAhQoQIESJEiBAhQoQIESJEiBAhQoQI ESJEiBAhQoQIESJEiBCAUspWSvW8UD/PCP/kIV4AiJDQIV42Ig3IF+qHWeHfO8R64VdyhgBTCBKA WZNdS4Fd+5K8EcsWWjz0BSO0CJ+mEACymksBvYFkgy8ZLntsKHsMFRyG8o7qLzgkCy59BUeZJZee skek6oMbYLiBMqWCzV0i/4Zt4r6dveL3zXj2UM1DW0BCCJEPCR3ieUdQyWUUbHF8duaqXDVdUnsn Cmw9v6g2XMirnvG8Sk4VYb6sWKxC0VM4Pjg+BFL7B6UUSun3QSCovw/9ScF/fo2R+9lXGD8cTXb9 R43QcSFEISR0iOdmEcq5qIIdFY/9M2VuHltU15+YU9tPzKnhU3PKuJBXTJcgX5W4PgQKDLH6JoQO tkSNLUI0ZzKW33cDKHvwkTdZxffeat9kxNLHlFIpIUQxJHSIS4JbztnAnoLDa8bz6rZjs+rGw1Ns e3ZWWWOLivmyouRBIFUDCWtqq9ZHkkYyq9o/qvEOAa4P2Zjgrp+0/3b3aNdPKKUSQohyGBSGWBNe OTdQ9Xn1ZJHv+uoJdfvTU2r30WllnltULFTB9TVhRU1Jo4ZCCq3GgWwgt2rDZMWKT6oGAtcvguWP BQqFIeBCDr5x2nidUm4CcMIsR4hOSjxacrlzLMfb/uGQuu3pKfpPzytmSlDxFL5UBIFCypqCSkWg QNYYKGvvK6k/R12hG8ywaBDdZgLLBiIvE1yhGmQ+8BUXFmW25p/LIaFDNJO4t+LxxrMLvPszT3PH oWnVdT4HBQfcQOH5CsdXuLWbJxV+oIkra6xUTUSUatlu1FV6hX2gIQhcpc4KmoR9mc8CJMQsXMB7 If9OIaGvYDilnCkVrx7P88OfP8pbD04wcj4PVV+rpOeD60tKrqLiSRxP4fngBQpfgZR1EqqVqqtW emeplr9OtSByK3vRHAyuCBJRmCbcNGqOSdcrhoQOffFoweVHHjqvfvDBMbHvxLwmcb2SIaWk6ChK rqTsKqqeVmcvgCDQ/ljVlFk1MlGoVeq7ROYGFYaGSkgzkdXaKYaKo3jzXpvXbjP/zIwmZUjo71wi 779Y4Of/6bD6/ofO0zNdEkRMiNkQs6DsKoqOrN0UVVdRrSuyrNkLWbcYNUK3IeaScisaiKzWpcBt UQs0u+KC33pj5KuWKf7uhf4bhoS+Mvzxa07OqV/604fV2x+5QKQaQDYq6E1ogpQ9SbGqKDiKQrWm yj44vsIP6iRu8MqNAVsDcZcJvdJa0OL9yyK0AMdRfOD2aPmmTeb7RCQjQ0J/ZxH5tmem+c+/e598 x2PjIISgPynoSQqklDg+lBxFvqrIV7Uyl926vVAEUunqXaPKqpWkVTRU9VRronYm7vpZ7Xiwd8jk F2+L/LGIZJ59Mf6mIaFfBPiV3I1HptX/95tfl99/4LwiYgqG0gapiLahOtCDQlWSr0oKVe2XK57O YPhBLQ0nG1NndfvQZCNUa0qqVaxmOVl9mZCB4ldeHz83kBIfebH+tiGhX0DIam7r6Xl+5be/IX/i a6dUxDIFG7IGmShYtWJH1VMUHa3I+Yqk4EjK9aDPV7ViyHLajQYFbk1gteJd1Y7hKwz2pf9uFVdx +w6bd++P/IaIZvIhoV/GCKq51HyZX/wfD8n3f/aw7HUC2NRl0BMXRC2BUDqXXHIUBUcuWYySK6m4 dVXWRJYN2QulWqXTWpvgFcKrWjBZXb7dUEpfkB+8I/pEzOJTL+bfOiT0txlOKfeOLxyRv/PnD8tr xguwMSvYlhIkIwLTEEgJFV9RqtmLfC2DUU/Huf6yV5YN6biVHGxtjleVtDuzevWnxPo4XXUUb7k2 whv32L9rxjJBSOiXIVQ1d9XhKfWbP/N5/93fOqvoTwmuGjDoitVUGd1nUXJ1BiPv1Lyyo71yPYPh S+2VpVQ6N7wivdZCWZeqfh3IqzqRVV2SQEsFtqV43+2xB02Dz7/Yf/eQ0M8zvHLOcHze97GH5G98 4mE/EyjY0WvQlzRIRQW2IQiUqnllWUvFqaUMRtWTuAH4jX55Kc2mWnvgGoGVakNe1rIYl0biFa9A ruJ7roly+44XX51DQj//qrzr8YvqYx/+mv+mR8clG7MGw2mDnoRB3Na9xW6giVuoKXLB0apc9RRO PYtRV2WlG35kMwFXVkdWlkNUJx+s1k/adWQ7lNLVy597TewR0+DLV8JzEBL6eUKlmPvRjz8U/Pc/ ecDvUwp29xn0J02ycUHM1KXkiispusuKXPfKFU/iejrwa6z4NfZSNCpxnU2ty9FqfeRtRdhLTNk5 ruI1OyK8YVfkT8zYC19ECQn97UnFZc/Mqz/+sc95P3n3iYCRjGAkY9KXNEhHBbYJfqCoeFqNdcVP UnYlZacW+AWKIAC/VvFbCvyaSVx3zqoDidUa5FVrBIPrDAQBlISfuDU+Frf5wpXyfISEfi4Ww8nd +O9H5V996Cve/umiYlu3wWDapDdZy2IIhetDydUl62ItLVeu9WHUK35eU/laqRZpihVTJR0IvBZ5 1yKrWp8tcX3YNWjylmui/yCimUpI6JeBxfidr/v/44/v9zMJG3b2mgykDHoSgkREM6LqowO/miqX 6n0YHjiBwvelbsaXDQ33zfLbVM7uaBWUWid52yn5+n//wJW86/qkM5AWn7ySnpeQ0JcIv5Izpov8 wY99zv3AF48EjGQMhtIGAymD7oQgbulUVtWrkdmRS+qsu+NqDfiB1MUSBSpQS1W/Vek3VGclXpPE bQLKTg+qW482PjxQkEkK3nVj7O4Xq2cjJPTzYjHyQ09elP/zp//FeduRKcXmLk3kgbRBd1y3ekq1 3OaZryqKVd2Av0xmuZRfDgKQSq7sq1jiqWrfRaTUcyCwWlup11Br11V8154o1wxbn7zSnqOQ0Osn 875/O+L/w//7BXdPvgpbuk0GUoKBtEFXXGAbOkNRcetFEm01KrXcsrOkzDoADKRCStmUqVCt+y2a yd2JxG3zy+sJBjt5jpXf6103xM7apvhKSOiXZCYj//o/P+B95le/7A1YJmzsMhhMCQZSBtm4wKqR uejUqn5V3WC0TGa998IP9PBqsJTNoCl70Wqkuh2R1yBxx4DwcnPT4EkY7bF4/d7YP4touhwS+iUG r5L/vg/f4/79793rxbtihlbllMFgWpCJaTK7AZRqFqPulyuuXFJmv0ZmP5BNmYxlf7wis3FJJO6U 8WhD3o72ovPX+K7kjt1xNdptfvZKfL5CQnfOZPzUL3/R/Ys/f8iz+lMGfUmhlTltkI0JTEP3YxQd Rb5S88yupOLIpeDPX+rJqBdLGip7arl3ueW2F9VE5NVVls5pu45l8DZjKmuotQDecm3sqIAnQkK/ hFAs5H7uZ//V/bO/e8JnMG3Ql0CTOWOSjQpMoclcb/XMVaRuLGrokvMDWbMYurlI1amsGgsk7RS5 nRq3CvrUGgReTzBJZxsi9Ozihm6TW7dH/92Ipr2Q0C8R5PO5X/rJzzof/ezTAYNpg944DKYMButk NqDqKwoVxWJFkqtKitVAj0d59UZ8WduLsUzmRqVVqOWNLR3VuB0ZW5C43WM6NSiJNird4st9V/LK 7Qk2dFtfulKfu5DQLcj8U591PvrZQwFDaUFPAgbTBgNpk2xMYIkamauazIuVYGlw1XEVXq1YIleo 8spgT62byO3UuN3jVecsSKtMhlqZ6Vgr0fGGvfFzpsEjIaFfMmR2P/rZQwGDKUFXHJ1nTplLqTnX h6KjyNXInK9ISo7C8WSNzKz0yk3ripRSl0HkyyCxaqPgbYnbyqcvI5CQSRjcuj36TRFJV0JCX+Eo FXPv+38+5/7JZ5/2GUhBNgYDSZPBWgUwYupNRSVX1jxz0FABDHTwV1Nm1Vyirq0nWp10UO2J3FaN VYvHtiB4uzixFXHX4ac9T3HDphjbB+yvXsnPY0howCnlf/znP+/88aef9OlLQiYm6E/WKoAJg6ip Fari6bRcoUbmUlXhOEGtWFJf7NJiidyKnPNzIPJlkXidlcO1ViP5klu2R6upmHgwJPQVjKCSf8uH vuR+4q8f8UVvQpGOCfqS2jP3JAQxS5Oj6ilKTrBUASxVtTK79WKJaqHKqnlVbaM6tgrc1kvkSyBx uzz2pXQiKcCAW3fEjirFuZDQVyiUk7/p97/hffq/f8uNdMUhGRX0JnR/Rm9SkLD17J8TKMpurf2z qgdaq16gsxmtyCyX1ws0T5e0JKS6fCKrtXLV6yGw6tx6F0joTgqu2xg5YETTMiT0lUnmzX/7uP+5 /3aXm8lEIBUV9MR1ANibNEjWyOwFuupXrK/hqgZUPInn1dZwKdlE2qYm/FYKrNoRWbWxJLRZSdDK D6+xXGOtye8WlsT3Fds2xhjtsR660p9X6zuUzKl7TgT/9ItfcDZHDEUyKsjGDHQ10CAd0YUTvzbM WnK1KherAaX62tpAESi5umS9qozdKiOxHkVup8adlLjTWNUaRZfmoLPxSz3JtaORIB0zngwJfQXi yJT865/6nPMKx1V0J+pBoA4E07XCiVTgeHrmr1RVFJyAkqOoOjrXHEi5utKnWpFOtffJz4nIqkPZ WvH8VQ315/dtio0LwemQ0FcYZuZzv/m2v63+wPmFQI9KRQ36EnqgNRMziJj6uXYCvYJLT5wEFGut oK4v8aVcWlm7iszrUeV2HrlJudsTuZ0SX2bVsIOHVgpMG67aEHlWRK687rrvaEK75fx7fvKzzm8c OOPTk9JBX09CZzW64oKYrZ9IL4Bqg83QlcBaILh0dkknMncI+tahyusmslLtU29rFlw6eOiGQdlA KnqSJlsH7KdfCs/xdwyhlZvf9wff8D7xqcddsglBzBJ0xTWZuxMGcVuXzzypS9ul2r6MYn2bkVvL atTWC6w6Dmoti3G5RG51RFUnD94msFu9/JmmCe+GOxq+LAgUoz0W/RnrcEjoKwTSyae/8mzwdx++ 20knIhCzBJmoJnNPwiAZERhCd8U5nqLsyCUy11cOuLXTpVQ9q7GiN+NyLEZTRmSt1F6777nqcZfi o1k7IPQlW/sjpGPGsZDQVwjOzauPvffz1eu8QNEVEyQj0JM06EmYZKIGZm2VrevrFF1paYQqoOwE OPUUXSCbbKlqOIxEtlZVtQ5VVqq10q5lWaBzz0fHbEabXF0zsQPF9kG7YBpiLCT0FYBqKf9jP/j3 1Z84NRssWYvuuEFvQo9PRUxdrvZ8PciqCyj6VnICqq5ashornvslMl+exViXvVh3IMkaAWEL8q7Z 2L/8fbcORCYUajYk9Ivvm3f/0b3uxz5/2CUT0z0ZmZigJ6GntOOWJrMf6D7mkqcLKMWG/mbXVwSB XDnvJxsWI7azGCuqh2vYi8sm8npIvNa6g/aLG5UCYcKmPnvciKTdkNAvIvxK3n7wTPCXv32Pk43b gqi5XA3sSRgko7oSGATaN1c8vdGo5CxPnuh9c3oOcIlYstEmqEuyGB1z1JdD5EshsVqPojdxXiqS UYOhLuvcS+V5f9kSuuCo//r+Lzq3FRxFd8wgHoGumEFP0iAd01szpdLnmVQ93aBfdrXNKLtyqb9Z Np6NdqlkbvicUutU5edK5FaTLeu2FytJH0hFOmbSmzbHQkK/mFbDyd/yq19y/uvD53yycYOoDZmo JnM2rtVaKfB8vca2spTZ0Daj6ipcTy4f7N5oM1qReRUJO1mMNVRZdej3UB188KrAsp2HXumPO1UJ pVT0pkzScXM8JPSLhKCaj3ztRPDxj9/vWona9s9kRAeC3XGDRO039gPdp1H1dAWwfp5J1VV4nlw6 mGflwX+yvaJKtbbFuCRVbpXJUJ3VuCX510ngFiquAkV30iQRMSZCQr9IyFXVL//ql51XOAFkoxC3 IRsz6E7qY9MModsh3bo6u5KyG9TeSpylaqBa8sz6qb4MMrezGJ0CSNVpSqUN0Tuq+Dr3QLciulT0 pk1sS8yGhH5xrMbuX7/L/bXHxnwyMUHEFKSjuhKYjULEqluNZXUue4pyfcuRK5eOTltx+morYl4S meX6VLlt4aQFkZXqkKVYY+nMerf8S0lv2vQMQyyEhH4R8OhY8NGP3e+kYhFtNRI1q6H7NIReZRXo 9VyVWmajUjvQsuLWhlwDVlYDW6nnusncxi938Nyt93I0P24NH93ORqxn21KTJepOmlVDkA8J/QKj Wsq953v/V/VN+YpaOmkqG9VkTkV0VsMPdLdc1WfJbtRvrifxApZ3zq2a0n4OZF5PJqSTT24m8noX z6xpP9Zajq7IJswKUAoJ/cJaje6/edT7/a8865GqqXMqYtCVEGRiYNfOA9TqTE2h5ZLNcNwA19eN OMtpunZklg3l7jZkXlcmpMGKtOpxVqpDsNdu1cFaKrz+PXiqlqdMxc0i4IaEfgExnlP/5fe+7m6y Tb07I24JsnFBNiaI20ZtlEou+eaqJ6nWlilWveXNoCvILNspM2srM+tX9VWq2/iYVurdjshtyb62 HVEdRrGSMVFVCv+lwgXjZaDO1370fvcXTk4HxC2ImJCK6nxzKlqzGlKfZ1L1a2SuHaFWdeXS6i4p m8apni+b0fzYRsuxykrIzmRe1bLalBJUsunCkqtjAKU7BvVhcQ1bnZpvtR8UjxhCvYT48JJX6Mcv BH/8lw970VhEr7aN25rM2aj20bKWonM8XeJ2ajOBVa9eDawvH1+2Aap51cBzIbOS6/DLqo1daZNv pkMzVBvVXvMswzasjdlGRSmCkNAvALxK/vt+6NOVO3NlWeucE6RjNasR0YfCe4HE8cHxNYGrviZ1 1dVWwwtq5e1VZJZtUmTPB5nbVAZXfU2LBTQt7UframF7Eqs1SF3f8iSJWKJgRVMyJPS3GUE1H/3q Mf/Dnz/sk4zoJYqJiPbO6aj20oEEt9ZJV10is85uOB41q9F0pPAqMsvW5eznQuZWj1tzb0crxV6D yB1J3GqKpXlRjsQ0kC8lXrxkCe34/ORH7nOv9QNFwtb2IhPTt+Wcs8T1tOVwawvInZqH9nyJt8Jq tCD2KlJeDpllC4VtYzHaBYx08NQNBFR0KpXTeQ8IrH1/SOhvD2Q1n/3Hp/z/cu/JgGQELEOrcyYm SNXUWio97OoGmsxOoBuOqrUlMV6gUEGz1WhKzzWR8nkhcyeLsUohW5G3aTiXFmXvts1Pqs3n25hr pS75MPuQ0JeBoqt+9E++5Y4KoTANVqqzJbS/DvSRw3Uye0sBobYhQX0bKLJFHrYhPddIZl4AMq+q BrZ4v521WEXYJkuzisRrLZnpsF83JPTzlqZLfvJR732PnPNJRcEy9DHEmaggadfmA6VWZ33ssNTk rnnopU2hcpk4aoVvVq3P1l5B8g5kVi0uklWElK09cScyrzi0vhORO5H4EiZclm2YCAn9bUSuqn78 Tx/0tpmGzjHXJ7jTMUHU0k+CLzVxfV8T2/e1Wnse+L5smA9Uq/fPtevDkGt54qYvbOuZZftFNKvu b6PKHfs91trU1CpbQmuyS4njyZjvFoUVSamQ0M+/Oqc/+aj3oSfO19XZIBHRZE5E6uoM/pI661s9 KPQCvWG/UZFVO2I2B4GNZKbRYzcWTS6BzM0deJeiyi0bntazO68NiVtkO0Tt/+h6QUZonnghoZ9n 5Kvqh/7sIW/TkjrbkI7qNJ2eQlE1u6EHW71AVwHdWrrOCxQyUK2tRgtiqlX+t5mMTRXAtci8Su4v gcytZgJVByK33YHX7uPWlqPiSngJuY6XTOlbVvPxLx4N3v/4mE/c1t45UfPOiYiBgeaWF+i+jCUP 7evDL+tHEqtWwZNqEyg19250fIxam8yrsietyCwbtpi2IbPqQGbVSrVl0wUgm3LfqikArD9eUq76 liFeOjx5ySh0xVPv/MQBd5cQWp2jliAdEaSigoihn4S6Oi8FgjUyu55a7qSrWw3ZRqWa9zuvsBKd CiftshmXSuZWgV/zRbLWhqYOGZKWKbrVfwf931EUK34SQQRwQkI/TwiqefNLR/1ffuhsQDwCpqEX LaZjOv9cn+D2a4fC+wENhZRagBg0x0gtStut8s3Nedo2OeqWJWnVVKRpZTNWBX8dVHkVodv0hbTL ba8KABsJ3CIHLSWFkpcAokAhJPTzZTckd/7VI96NfqBIWBA1dSddKmoQMQWqrs41hXbrgWDtRNfA r7eG1gnbqhqo2vjmBrKr1jlqWnnt5iJNJzJ39Mtr2Is1iaxW55XVcuPoyleY1RmbxaIXQ5EGws1J zxcevRD80t3H/SV1jkd0MBi3tTorBZ4Ef8lqaJuxpM6S1S/hbaxG6xxth3LxCjLXiCtV+8zJusjc zgurNn0dqm0OvTGAbE3izuewLBa8aKDIhEHh85Wqq+av/bvHve8qOwpLQMTUhZRk1CBaY7O2GQrP r1mNes9z7fB4rc6qhTq3KKB0shor1LzNjJ+E9g1IzwOZFS1sR0Ogt8pSyOXgsrE/esVjWo2I6fvm co4hpeoKg8LnCafm5M9//hnfitpgCkG8lqpr9M6N6uzUmvhXZjbWq86dJj3aqDlNGQ3kOsjMpZG5 ZZm8kyo3KXKrPhDa/C6NHwtYLLg4ruwPFfr5KaQM//Nh/z2Ti5KICbapiZyM6N5n0EeqBbWgr17i dnzdYadPqboUde6U1ehkNVrlmtUK27qScPLyyNzp44ZU23K6r0GBVyg4TRMv9c/Lhu8lQSjm8w5l JxgKFfp5wGJF/chnnvSypgmG0IdgpiI672zVvHMgWQoI3aDBO/tt1Fmtpc6tAqR2DUVt8tPI1iRu lZq7FDKjmixLK1Veo4MPVqf72vz+hoBc0aVY8YdDhX7uqTr7vtPBjx2aCIjZukU0HhEko7pnQ6DV N5C6dyMIWCqiuH4tTbdiWWKrwE62UOdWVqNDd1qnNQOrbIhssN9tjkNu9LftyLyqINKoyi08dSs1 ppX/XjmjaAhFseQzl3M3hAr9XO2G4vbPHPSuDiSY6FRdMqIth+4QVUvqHAS1Zv4amfWMYNMAaDtl pUXKjVZ2osNREKrT4ZnNKlxbK7bqsM5mMrcqvqjmq6+zKndqJ+3YOqq/lwAqVZeZherGkNDPEcdn 5U997YRWZ9PQJ1SlauejGLVgsE5oXy73bNTbQxubilSHtJtSrC8QbNcL0a4q2GqlgWqzIw9dxFjl 31sGmSstjGqVNWm+UFjrgm79Owv0oZvjM+Vh6ZUsw05e8esMrkjLoZz88BeP+N8zW5DYxnIwmKgt kVlSZyVr6lzPPev3gzXzzpegzqv8cQerQTvyy6ZgkNUpuJZkblNRRNa+pE3RRbXLhLS4GBuDweYg U0kIAsYmS4NCiO5QoS8TRUe9618OeZnGYDAZEcRsA7P2PARKb9/3ZcN0Sl2dZQvvrJ5HdVZrFFxU 64BSrcqwyDaE7KDMzRajHXGbXz1gnfc3QcC5iVJWKjUEzIQKfYnwKnnx6AX5nifHJTFLB4MxW5CI 6CUysNJq+PUW0Xp7qGx+tV9jMeFaiq1UCxvRooDSSsEbJ8XbWhW1OiBbEUSuLL+rVoEjtFZXWnnw pmU0jZ13rTbOGHB2smQ6rtwcKvTl/IcMdn7+sHeT6ylicV0ZTET0Si/T0MQIVC0YrK8p8HXu2W+y Gyv7hTrlnddQ55ZnAsrWfRPNF9EqJW/44bJN2q7lz5Wt/XKr5qV2F09zdmaVRWr4+9QfZ8CFqSK5 orcrJPRlYLqo3v6VY4FtW2CgVxIkbd0uaqBjJ03m+qjV8sIYHQyqzgRVa0f37cf42zTzNCv4Kquh 2i6sWTFg0DabIRumu9vYE+jgk9tVCpsv8tWfMwyYWagwPV/ZE+ahLz33LB48G7zr5GxA1ALb1Bv4 47U1X0o1qHOgF8WsthsdzuGj1VjVOtV51ULGDj670aev2o3RyTe3IfOqz7Uh86rv02hZ5OqBBJTe cbe0Nrj+dcv/R0NAsehybqK0OyT0JULA1V886t8oAx0M2qbue66n6lSD1agPwrr+cjAo1fqCwTa5 lUtTZ9XGX69STFYrZSff3JbMtHi8XHmRtCu+tJhMqRN5VWlcrbRGAgVuwPGx3Dbll5MhoS8BF/Py +75x0rcitp5KiVu6VdQ29SakQOmsRtAwYlVvEQ1k63Rs80twW4KsJ7PRMU3X1KjfKhBszDe367lu lfJbVWxpCv5WBH6t+jcaiKwaiSxbVBFbjWlJjp5ZHFSwMST0+u2GcWBMvuPcQr0RCWIR7aHNmt3w a0rcuETGDeq7nZunLlrll1mdjWgVOKr1bMBXnT15q0CwZeVOtfa2K7x3q8rhGh83B8E024pWp3Op 1qVxU/Ds2ZxddYI9IaHXbzf2fvlZf5+UWp0jpiBh65K3gFrfBstzg77E8fW5KEHjqVXtrMVawWBL xqvW86Ntj4FYTyC4etdGq3yyavbM0GRn5OrhgpZkVrUzY5p7qmnTT73688IUnBzLMT1f3RdmOdaJ qaJ8yzfPBJZt1Urdlp5IWbIbjWSuF1M8bT0C2SYb1UQ8pWhzJForG0LbbEDHzAZt5vPaqnNjpqOe 0aB1430rMtOct6aJzG0uopbpvJW/uH5V1ESXSjI1X7k+JPQ64Ffy4ivH/LefmVtZTIna1Po2tDp7 sqEyuETmlcFga7uhaO871rAmrTYbtcxsqBabAFrs0Fh1IbSZ/qZVENiCzM1K3fAfUO3GttqdutXw VkqJEILNQylGBpLs293HzEL1GrdaikZiSScajp9JAAAgAElEQVQkdAeYBtvuORHc5PsKs9a8H7fr Tfz1RqS6f5bLq73qSxdlG2vRtm6wRraDdqm5Turcxr6odoWX1vuZVcuMBrQ+X0W2LZSoNQswq3/f evouCBRd6QhvuW0LmVSE2YUK//HVE9iG3PzmV49uA46GhO6AXFW94b7TftSylndu1HugUfUyN/hS NyP5QT1AbLAbqA52Q12m3egUBLba8Mka3rkTqRvrm82vOLLF/7ddANict25S81UXtbYVyg+IRCyu v3qAvVu7eeLINIuFKg89NcHYRB6/6HLg6SmrUg32hYReA0em5JuPzUiili6gxCy9wNwQYlmda6Su +2cvgGDFOYJrBXht7lNrf8nqgkrrlGBHdW5uhGq7o24dVmNV70WjZ25H+KYt/0rh17q7No1muXp7 N8fOLlAqu8zMl8kVHJ4+Og2GwLIMRNzi+NlFxmeKtwL/EBK63Qu8k+/6yL3uq8qOIhPTQWDMFkuN SFLJWiFF55+DQI9b1UmuVEMY1tK/so7sRmfVbX8/q1Jjrcai2m4yokmd25btVfvYQLUIAFX7gVop FYGUJKImW0ay7NnSxWLeIRmz2DCQ5ODRGQ4fm0EYAss28P2AwJdYloHv+Rw5tfCKwC0LM5JQIaFb wAt4xX1nggEhwDR0uk439VNbUbCc4agXVup2Q66a3O+Urrtcu7HG6VEt1ZbOzT/tDudc9fNkC/sk mzIbqrVnbmpUCqRE+gG93TFitkl3NsodN48yOVvi0OQsB56a0Ipd9/KBxDQtNo1m8byAvdt7ufPW zZwdL1ytYAiYCAndAhdy8rsOXgxa2A0dDMoGNdbElrXm/k5JjFbpuk4WpDVP17Qyao1volrks1md kWmtzmoN39zwytBKmWs335eYhiCTjDA6mGCgJ87GgRSTcyU+d9dxpubKSDcAU2AYkE1F2TqaxTIF e7f10J2Ncfr8IvGoTTRikk5E0qWKtz8kdAsElbz4tyP+6ybykqQtsA1tN2xTj/8ES/lnmkhdP72q Oe+7Hv+8/Dk9DCBrFWlZ28JUz5pIhNIH2Ru68IMh1mE32vVv0E6FO90Pazfiy5bZCt8PiFgGw30J PD/gra/dTMQ2eeyZKQ48NYHr+hgCIpbB7p292KZgseDwhlduwnEDQLFpOEMsYnLP/Wdwfcljhy9i GII7bhp6HfDlkNBNMAy2PHA2uEYGYEbAtiBay0MrauqsajdZX2au35dKta99tPHPSi0f42YZ0J+x 6EoYCAXD3ZbeuORKelIW8wWPcjUgCCSlSkCx6lMsB8jaxWQI3YkmlJ5AXzNV17ZRCFoep9zs4Vv6 eVX7UVILQCCRbkA8YTHcm0IpxVXbeujNRnjm5DxTs0UMQ2AIxetfsZHNw2lOnV/ANAUj/SlOnFtk 64YMdz94jiefmWRoIMmuLT1UPZ/zEwWcsgu+5NCJudcGXlmY9pXno19UQpdc9aoD54OYaQpMQxA1 l+2GUo2DsKzIdtQ/7jj02aBkSuk2U9uAwazNjqEItgHdSZPpRY+qK5kv+BQqAaYBVVcipSQeMehJ 2fi+Ih4VVKqSTMJgYs5lvuAys+hQdQNcTxNcSoWlZbz1a8JSwkIhhA5464GaqHW/CV3VIFAKA4mU +uILgqDWD77c6G8YIANJxBa4nqQ3E2XnxgzFistr9g8TBIqDR6fYtTnDA0+M052N8l23buLf7ztD Mmbx1LFpDCG4akcvX7n/DJYh+NbjF9g8nObM+QXOT+Y5cnRKd91FTUZG0thCcOj43L633r51IzAW EroB5xfV7c9OS6ImWKbOP9fthmprN1hpNxQdbYYXKEwBezfEGO2xAMVcwefctEOu5ON5EsvQ3982 BULpzaVREzxPImov4cmogW0KuhImA1mbbUNx9m1NMj7roJTkmbNF4hGDqQVHE9ELEAL0Pms95xiL GLieTyZpUar6ZOORWsbBQAb6AipWfCIWdKdsKo5PJmlz5kKe3Zt7GJ8usaE/QSJmEgSSVMLCdX36 uuP0ZaLEYya7Nnfx8NOTKAX5ksPETInTF3KkkjYTsyU+99UT9GSjFMsOh47PsnEwSSw6wK37hnn4 qYs8dHCc+bkSCJ3l2Ly5i3QiwsbhDEN9ScqOz8OHJuKVqv/qkNCN/rmatz73tHfrXEkunfwascSS wjVOptSVuj5DKFXneE7WKohBIBntsblle4JNvRHOTlcpu4pMzODtN2VJRAyUUlSdgKonuWo0zmLJ R9UvGKU7/oqVAKUUF2YdRrojTC44OJ5uito6FMP1AnaMxBnpjjKbd5FSki96lKo+pYqPbQqySZN8 0aPqBnh+QFfKJh03ScZN/YokFecmS3SlLKqOT39XlPHpMqYJ5sY0QaDYszmLVIqedITubATfl2SS FqlEhLnFCvc9NskX7zvLxeki5YpLJhVBKcWXv3WGfbv7ee31G7jnoXOk4ibX7R5FSsWRU3P805eP spCrEkhF1Da49cZRTo0tsH/PANs2dnHVjj4GexN8/FOP8/SRKTZuyHJxpnQn8JmQ0HX/LNjy8Hm5 S8nlZv6ISVMjv07V1TMdftCwRKYpUJK19lJTQCZuMpAxeccNafaMxChWA2bzAXtGYhgGpKKCYlUi lKJQkWSTJmZFMLHgUnH0S3/EFEzMO2wfimGbgoFslK0DMUrVgO3DMbJJC9uAQsWnWAkY6o4QixjM 5Vy6UhZBoOjvinDkbIHulM3ZqRK2KRifrnBusoQXSJ4+vUjMNjg/VSJqG7hugOv5RG1BueKTjJlI KRnqiZGImczlqiSiJl0bUpwdL1CuekilODW2iGkIxicK2vdu7iJiCaquz6v3DfHVB89Rrnhk0xH2 bu/m+JkF/uIfn8I0BEKA7wXcdtMoWzdkOXxihl2bu0nELDZvyHLnrVsY6E0Si5q8+017yKZserJx nj0zf/uV2NfxohG64nLLExeCiGHqdF19GaOob+NvsBy+VLUNo2p5rrRmNzxf+9GkLdgxGuWq4QhD WYtrR6PEbcHxSRfLgHwlWAq4IqYeuDWFoDdtIVD0pqDsSHpS8My5EjdtTzE+65CKmRQqAf/28Cx3 XJflPx6Z4/ptSaqu5MxkBZSi6gZMLTgkoiZKSnrTJkjIJk36uyL0pG0GuyP0piMMdUe5eksahGJ8 touupIXvK549l+fqrRm+eXCK1984yELeZaHgMNwbZ26xymh/gnOTBTJJm6n5Cj3ZKJmUjWno7FBP NkJ5Rw8Ag70xyhWPA09P8PjRaUxDUCp7/PPdxxHAnq09JOIW+aLDtTv7uP+JC/R3x3nm5AznLixy YSLPj7/zWkxD8Ft/9i1+5gdv4A2v3MxbbtvO9tEuDhwcpyuT2CaV2g88HBIamCjIW4/PKiKm7t+w Td3Iz1K6TuEv7X5mSZ21h655YwTb+iNcNRJhS5/Flj6brrjBSJfFfCng4FiVsqMzF2dnXLb123iB 4uuH88Rtgzdel8YLJJ/8+gyWAe++tYfFos+2oRif+eYMuzfEMYT29wNZm0eeLXD99jTXbk4wteji epJkTF8cc7kogVSUqz73HJhm364MkwtVvvqtCWJpC9sQuJ5PKm4iBOwcTWKg2NAfJxE16ErZXJgu c/XWLE+fWGDzUJLZhSpbhpJ4vmR8uoRtGZy5WCAWMXVA6On0nG0ZHD29wK7NXUzMFLkwlSceNckX HHr39HNuPM/m4RRbRoY5ezHP5pEMx07Pkc9XScVtfvYH9nHo+AyPPHAGoiaxdJSJ6QKTsyVilsmz p2Z5x+t3YpkGGwZSvPWOHdiWIeZy1TeFhAb8Sk7cfULeNF3U7aKmoSN5QwhkvXAS1M4b9OtnpOi3 1VpGYWufze27EuwetElGBZm4PrNwJu/zvx9Y5NiEQ6EcsHMoQjpqMJP3GMyYvHFfhn95eAHbgG8e gfe/bYh/PTDP9qEob76hi09/c5brtya5ZWeKgazNPQcXySZMPvD9o9z9xAK5kk/Jkfxfrx3gg395 gtmc5L3v2EihFHDqYomrt6QI3ID+7gh33tjHfQfn6E5buG7AX37xDOlElKHeKI8+O4/v+MSiBlWn tmHL8YgkLEwD0gmLZNTkyWNzZJMWKEgnLQIpySQs/ECSiFpMz1fIJGy60hGCQLFpOMXp8zm2jGS4 OFXg4nSRRMzk5NgiF6YKTM2WePLIJLfftJF33rkTULzmhlH27x3E8yWWqQPZ63YP8N4bN1GueJy5 sMjJcwsM9CT4079/jHLFY7g/xQ+9ZdebgA9/xxPaNET/wYtyj++BYQusWtqO2s4Nfei8JrEvwfEV RUdhAPs2Rtg/GmVLn006ajCx6GGaJkdPVXjyTIXxBZf33NrFwydL7BqOccOWGNm4yc3b4/zhv07x pv0ZPvj2QZ44XSYTM0hEDH7tXSM8c77C0+fK3H51mjPTDt1Jk0/fO8MPv66f+w4t8vjJIr1pm/91 zyTbh2K8+cYe7tjfw7/eO4FSYFsC2zLIl3x+96f3cN/BOabnHd51+zA37MzytSdmmM+77BxN8s7X jnBhpsz4TIVjY3lOjxe597FJXvvKIWxTcPZigbGpEvO5Kr4TgOOBbWBHDTy9s4GGfB6xlE0yZlMs TeP5PkrBk0en2DycZs/WHvbt7iOXd/jt//8BCCTprih7t/fywBMXOH5unttv3sSuzT384QdeR6ni 8cjTFzk1tsBjhyfYtrGLex8+y8Gjk+ze1ss1O/v5xy8d4Z//4zBdaet6FVR2CTN+/Dua0IFk78GL QRahg0Czlt6SUte96r3Ojq/IV3WQdsOmKK/aFiUTM8hVJE7t5bZQDfjakRJvuS7J9qEIgZLEbcGv f98gT5yt8KO3dXN8wmUwa3LtxjipmMGuoQgbum2kVNz/bIGdwzH2bIjz0LECqa0Jphc9vvHUItsG o/z635/lVXsynJ2q8tdfmWCkx2bvpgSf+voEAtg+muS3PnWad792gOlFhwcOz7N1aCvfenqObz4x y6bhOH/5of1cnK3yxLML5IouTx5f4Pb9ffzgGzbSm4nQl47wuusH+Lnv28ETx+YRQq8GBviHr54i V3B5y20bKVV85hYrLBYcHjg4iecF3HLtAFtG0uzd0s3BYzP8xp8dIBUz+O7XbOcHvnsX9z4yxjU7 etmztQeEYnqujOP6XLW9h3e/cRdHz8xhWQa93XGePTXLxZkih49PU676HDs9y/hkjqeenSSdjLBt UzdD/Wmqro+3WOZzdz0bfd+P3vhW4I+vFEK/KEeEzi3kPnDHJ6ofOTzpk4kKehOC7rhBzNaWw/EU hUqA6yu29VncvjNKMiIYX/BxPcVQ1mK24GMasGcowl2Hi3zPvhSv2hHnybMVIpZgQ5fFY2cqzBR8 8qUAx9deOpCKvpTJxILHvk3x2rnfirg+7JD+jEWu6DO16PK6a7Pc/0yOeNQgGzeRCooVn2zC5L6n F5greNy8O8PRc0UePrLIK/dmSEZNzkyUeOpEjn3bM1y9NcX2kQTJqMldj05x+mKB2UWHvq4Iv/vT 1zKzUOWDH3uC4f44f/gL1xMEirnFKhPTJV5zwyDJmEXZ8bFNg7MXC3Rnogz1xujrivPM6QX8IODi VImNQymu29XLZ758nHjUZLFQZdfmbp56doZXXz/CTVcP4ngBJ8cWSSci3PvIOdKJCOl0hAMHxzly fIaNGzJMzRTpzsbxvICzFxa4Zf8oB49OglIcPjHNB//vV7GYr3D3t04TKMVHPvS6e2+/Zecd39EK PZ5XrzifkzXfXFdtRdUDx5dUHEV/yuSVWyJs7rEYX/Q5PePRkzDIJgw2dJu8cluMc7MuW/ps3ntn N7OFgG8+W+bQ+QqHL1QpVQNMIXADSTZmErOhUNGl7PGIgetJTk9WUUqxWNSpMoEugkQtvX7skeMF BIr+rI0J7B5N4AcS2xT8yBuGuevxWTb1RXntNV0Md0eIWIKbdmX4p2+4/MzbN9fK5JIvHZhiy2Cc 0f44m4fiLBZctg4n+PrjU+wcTfHjb99OseTy3z5xkPe/Zy/HxnI89vQ03V1RerNRPvG5o3zwR6+j vzvGVx88zzNn5vm9997C3GKFv/viMbZtyFB1A67f08f1u/sZmyxQqfqcnyywd1sP87kqJ84tMjVX 4okjU0zMFDhzfpGjJ2fo7Umwd3svDx+6iBcE7NzSQzYV5dDxKXZv62NkIMXFqQSf+9Iz7L96mEPH ppjPVZiaL3L6mUk+f8PIjSqoDgkzNvkdqdCymjc//4x/8F3/u3pN1FTEbUFXXJ8GKxV0xeC6kQh7 hyzmSpIzMx7b+y02dZsMZkzGFwIG0gaerzhwuoIALsx7nJ52mSv4GEIreNyGqqsoVXXTkUCRiAh6 UiZdCe2dXU8y3GUxX/TZ0h+l7EhSMUHUFhRKARU3IFfyMQydI8/EdYWvO2URjxhLZfJtw3EWix5n J8vcsa+Xv7vrPNdsSZOtVQSnF6p888lZ3nHbMF8+MIFSil2jKcZnyqTiJhdnyuzdkmF6vkKlqosq hiFIxU2m5yq4XkAsarJrU4aILejNxphbrPLMqTkuzpR45+u34dWakUoVj/HpIoaAux88x2BPnIV8 lVjU5PxEnun5Et9z21akVOze2sOZC4t87xt2cmpsgT/88/u5eu8gP/H9+3j88ASnzs+zY1MPjx4a 5+yFRXqyMU6fmYOiQ2o4yxtftY3hoTR/9Ct3/qd4PPap70hCK78y9Lv3lI/91/9wMvGoImrqk62y UYPrRmxu2WIzlQ84PuWyIWvx3VfH2dRtcnrW4/GzDumYwVPnq+TLknwloOxIHfHbAlMoMnGDrrhB V8IkHTfYMRChN2VScSWpmEHVlcwVfKZzHoulAM+XLJZ8LEPgeAFDXTZK6jUJnq84O10hEzM5MV6h N61f/uudetmESTJmELUMRvuiZBIm24bjjE2V2T6SJF/yuGZrmocOz9OXtYnaBsfPF4jaBr2ZCOcm S2wciHPvE9N0pSz2bM7wF/9ynJG+GBv64wjg7MUCF6aKDPcnqFQ8FgpVFgsOliEY6o1z7mIeIWCg O8aFqTzd6SiJmIXn+bzimiFME3IFh8V8lR98826OnZnnhqsGyRUdHnzyAk8dushN+zfwqv0b+ItP P45pC7LpGPHaBTA+ladQqIDjk+xOsHtrLyP9aXZs6eXNr9vJjVeP4HnVfx8e6Hnbd6Tl+PhH/2TX uc3vy4CDL/VW/h19FjdvipCOCp6Z8BjOmPzQzSkSEcFCSfLJo2Vmiz5TiwEVT5PNNvQ530OZCNv6 Tbb22aRjBlFLVwHnSz6zeZ+nxqosFP2lIysWix7ZuInrSQqVgPmCp5tvBLieDig9X5KOGiSiBnN5 l8yGBJYpGO2LoJTNEycL3LAjxUNHFsnETZRSPPzsIlPz1dq545KN/ToAHe6JkI5bvOqaHqYXnFre 2SSdsKi6AYmYxc17ezg/XWLrcIo33jLM1pEUyZguib/tto2Uqz692ShnLxYAheMGfOXBMd5x+xae OTXHv3/jDO95805G+pOYhuCbj4+zdSSNlIqbrx3kH798jCMnZ+ntipNNRfnXe45z242jnBybRwHl isdjz0ySTkcZm1jk0KGL4AfYmRi+H0Cg+KkfeQVX7eznlfs3smdbH5/98jNYpkGh5KEC93Vbt27Z eObM2fM1kVTfMYR+8vDxrWfTgmhEsL3X5LoRm72DFlFTF1TedX2C6ULA2LzP0UmXxbLk4qKPgU7j ZWIGm4eibO6x2NJnUaxKLsx7PHiywrlZl/mCT8kJCAJFxBKkowY7BiP0JC0SUUFqYxTP1+XGqzbG MIUe7SpUJednqkRtg/m8x/ahKCVH92tU3YDbrsrgeJLtwzEGumxu3Zvlpp0Ztg7GKJR9Foo+IDl4 Ik86YfKlA1M88uQCGLoz7u/vGiMZNxnt03nozUMJKhWfnozNLVf1cvx8ntlcleG+OLZl8MDT04z0 xvF8yT0PX2DHxgxbRlLMLJTJxG1yBZfDp+Z41XVDHDuzyBe+cZqbrx7kldcNMjlb4sEnx3EcD8sS RCMm3akIH//UEwz3JZieL/M3//I0x8/O0Z2N8aVvnkQGinjMREpFIhvje9+wmx///v0cOz3LL/za F3nnd1/FK67bwNRsCdcLeO3Nm3noyfN8+gtP8b1v2p/6gXe/+/v+4A8/8nH08qJWk74vO8shAPWh X//d3z66/QO/trCY54ZRi6sGLRTQFTeIW4InLzg8OeZSdALyFUXFlfQmBRu7THb02wxmTFwfFssB +XLAfCkgZumg0vEko902JSfA8/VKgFTUJGpC1Ba1qqOk7OijLqYWPRJRgeMq+jMW/RmLiiNJRgU9 aYvetE130iQRM0FB2QlYKHrEbYMLsw6puMFc3mNjX5R41CRqC+bzLr2ZCCcvlDg5XmKoN8IjRxZ4 9Og8szmHhXyVatkD1wcBiWyEwa4I2ZTNUHeUHaNphnpjzC5UuX53L48fnWH35ix3HbjArs0Zzl0s 8Lm7TvL6W0bpTtscfHYWUFim7ofx/ADPC3SDv22QKzgIoX//iZkSbqFCsivGjk3dLOQrjJ2a5dWv 2kpXOsq1u/u54aph4jGLxw9fZNfmHt7ztmv51BeeZuNwlk3DGSZni5wdX2Tv9j7+6K8e4KlnLjIy 0s+dN5gPf/hX/tMdpbJb34jjvxikfsEVunvD7qtsQ/Ha7RFuGLU4PRfgB4rHx1xOTHvMFANkoOiK Ca4ZsRnJmoxkTfpSBiVHMpkLsA1BEChSMUEqalF2dV9xPGtimwLbNClWA4qOYmrRwzYhHTPIJsyl pY6ur0jFDMqOpOJI8uWAYiWgK2liGQZOrXU0UHB2sspkvVdDKV3uNuHinO6HvjirO9XqKb2TF0r8 2HePYlmC3RuT3HlDPxfnqviBZGyyzOEzOZ45s0g6bpEvujx1YgGr4vO1Uwt85d4xYukIvu+zc2OG 4d4YY5NFerJRutNRrr2th+5MFNsU3HHzCFHbZHy6xK7NGXZszPI7n3iY19+ykVjEwBCwkKsSj1kE vuSdd2aZWyjjOB6D/Smu2dnHMydmeOsdO+lOR+nt1tMt45MFtmzoolj2uOv+U8znKhw/M8uurb0s 5qscOTHF2PgC6USEYtHhocdP88r9r7r55ptufs2933zgfsCuETlo2dP7cgkKM8lY4n9+4eHHnO5r 9vbGPO5+tsrJWZ+Lizoo60sK9m2wGe2yGEwZpGP6KLcLiz6GLsjgBTpzUXLk0rhWvqL9sW3qYG0y 5xMEeqIkVwq4uODRlRDkK5KFoocMFDFbUHUlZm3yZLg7wua+CFU3YLjLZstglMWiz8yiyzNjZSwD phZchrptZnIu121JUnEC9m5KgoKetMXjx3MMdUe4MFMhk7BAKUwDejIRNvRF2TWa4tDpHFU34Npt WQxDV0knZssk4xbnJoqcGS9y67X9TM1XOHpmgS3DKT75xeNcv6uXaNRAoDANwXBvAlBkUxH8QJIv Oly9rYeZhYoWjkwUIWAhX6UvGyObiXLszDw92RjbNmR1517MojsbY26hQiYV4aN/+zDZdJSNwxlO n19gw2CaeNTCNAXnxhfZNNzFQq7Mx/7mAW7ev5Gh/hQPPT7G9deMcPWezQSz9/3Nh3/9V9+HPomv Cng1tX55EnrHts2b//7uQ8fuuxCP3n+yTNWTbO422TtoMZg2MYSeLMnEDBZKAeO5gIVSwGwxYLEc UKzo446rniRuCWzdr4/nB/QmtXrGbYGUuv3TNNBHKUcNBjIWxy9W9UYmW5CJGZybdihWfbqTFpv7 oxw4licdNzAUHBuv8Oz5MguLDpiCeET3tWbiJhXHZ6grgusH9KZtEhGDVMxkQ1+EhbzLddvSzOVc Ng7EyJVcelI2tmXgB5LejM1czmHfji4CKTl0cpHeTIQtIynGp0sM98WZXXQY7NG2Y2ahQnc6guNJ +rqjOG7A1x6+wC3XDPDE0Rluv2mEdMJmPldluD+J7wU4XsCjhye56epB7nnoHCdPz/Hj77qWqdkS 9z0yxlvv2MF8rsLRU7Mk4zanxxYQBjzw+BhbR7tIxm327x3k7PlFBvoSvOaGTSgUn/j0oxiGwLYN MskYr75xIw8/Nc5rbtpEPJ6gJ+ks/PxPvOX28YuT5wD35U5oMTzY3/2nn/7qPRPW9qsztq82dhki GRF4gSLvKIRSwvVhsSIpOAHFqg6oqv7yTJ1pUN/HIeprDvxAbwvSs37Lr3CGgGQtXyzQ+/IGsxaG gJhtMF/w2ToQoepJilVJrqQLLItFn4vzLrahlG2iAqlYKHi1A4qWx6bq8bxSug87UjNwG3qjSKXo Ttn0pG0Mof23EJCImvRkIkRtwdhUmYW8S393lKoTcPpCno1DSSxTUHECNg4kKFd9ohGDVNwmX3Tp Skc4eGyO63b11AYRoOL4pJM2uYJDMm7T3xNnPlclnYhgWQaHT8ww2Jvk8IkZxi/mGBxIE42aTEwV SCZs5bo6137ztSO4XgAKqo7P2fEF9u8dQirFhYm8euzgeW64bgOpZJRS2WX3tj4uTOYpFB1l21Zg UZr58K/+5PeePnPuVM1D+y9rQgMM9Pf2bxweHPWCwJISKxZPROxIxEJJUylpKIUJSs9yooTn+UIp ZSgwAt8XgZRC6O9VvxmIFR+LmmsT1GZY66N6gNClbv050xQEUk9KKaUw9NUg9I4QIaQMAhRK6O9P /W3Dr6RXo+pBraWhAz9QCCFqp9lSmxWs/bfUck+3KcA0xdL8q2kIJaV+rP4+UpmGqJXnASGUUgrb MpTvy6VRWiFEbcxQKSHE0ltZ229gmYaSSmGbhjJNQwVSKoFQpimUHyglBMowhPT9pUlNJYSQpmEo P5BKKSUNw5CRiCl9X0pAKqmkL2VgW2aglPKUUs7c3Pzi1PTsbM07u7W38uWc5WjMUZpNN6PhJpre r39M033rvdHhvst5++36+3VYVN32vkxqxmgAAAEHSURBVHZ7ElpsVV/1cbubbPNx49tWt/rPCGq3 FzzL8UJXChuJYQAik8mIWCwmPM8TWh1FnbRIKYXjOHieJ4QQwvM8OhCy3fvNv6focD+XSOBvN6Hb kXktkrcidaeLYD0XR7sLYq2L5GVdWFm5JhPE+9//fvMd73iHMTU1pQzDQCklTFMHeJVKhePHj8u7 775bHjhwQOVyuXYkEs/zx+shq/g2/40uR8nXcyFc6uPVc/i5IUKECBEiRIgQIUKECBEiRIgQIUKE CBEiRIgQIUKECBEiRIgQIUKECBEiRIgQIUKECBEiRIgQIUKECBEiRIgQIUKECBEiRIgQIUKECBEi RIgQIdri/wBmIWmqcT85PQAAAABJRU5ErkJggg== "
       id="image961"
       style="opacity:1;stop-opacity:1" />
    <text
       xml:space="preserve"
       style="font-style:normal;font-weight:normal;font-size:14.1111px;line-height:1.25;font-family:sans-serif;fill:#ffc454;fill-opacity:1;stroke:none;stroke-width:0.264583"
       x="15.788606"
       y="31.642006"
       id="text899"
       inkscape:export-xdpi="96"
       inkscape:export-ydpi="96"><tspan
         sodipodi:role="line"
         id="tspan897"
         x="15.788606"
         y="31.642006"
         style="font-style:normal;font-variant:normal;font-weight:normal;font-stretch:normal;font-family:'Bitstream Vera Sans';-inkscape-font-specification:'Bitstream Vera Sans';fill:#ffc454;fill-opacity:1;stroke-width:0.264583">GL</tspan></text>
  </g>
</svg>
